Randi Bolt - Reactable
…
total_stats

# A tibble: 47 × 29
      Rk Name    Age     G    GS    MP    FG   FGA `FG%`  `3P` `3PA` `3P%`  `2P`
   <int> <chr> <int> <int> <int> <int> <int> <int> <dbl> <int> <int> <dbl> <int>
 1     1 Andr…    26    73    73  2329   475  1019 0.466   157   399 0.393   318
 2     2 Jord…    22    76    51  2283   474  1058 0.448   211   580 0.364   263
 3     3 Step…    33    64    64  2211   535  1224 0.437   285   750 0.38    250
 4     4 Kevo…    25    82    80  1732   208   364 0.571     0     1 0       208
 5     5 Otto…    28    63    15  1396   193   416 0.464    80   216 0.37    113
 6     6 Dray…    31    46    44  1329   135   257 0.525    16    54 0.296   119
 7     7 Dami…    29    63     5  1256   169   383 0.441    63   187 0.337   106
 8     8 Gary…    29    71    16  1247   212   344 0.616    43   120 0.358   169
 9     9 Jona…    19    70    12  1185   236   460 0.513    50   149 0.336   186
10    10 Nema…    33    71     0  1142   160   342 0.468    54   149 0.362   106
# … with 37 more rows, and 16 more variables: `2PA` <int>, `2P%` <dbl>,
#   `eFG%` <dbl>, FT <int>, FTA <int>, `FT%` <dbl>, ORB <int>, DRB <int>,
#   TRB <int>, AST <int>, STL <int>, BLK <int>, TOV <int>, PF <int>, PTS <int>,
#   Team <chr>
…
